{
    "/js/app.js": "/js/app.js?id=0c9d9911ac256407b200",
    "/css/app.css": "/css/app.css?id=e71c2d743e01b373d008",
    "/js/backend.js": "/js/backend.js?id=c743921ca3d2d8deaa11",
    "/js/logon.js": "/js/logon.js?id=5d613cdeb1433c0e8da4",
    "/js/tags.js": "/js/tags.js?id=bacf7496d67260c90e2e",
    "/js/datepicker.js": "/js/datepicker.js?id=2f7b9619e066ed15d2ec",
    "/js/bootbox.js": "/js/bootbox.js?id=f893173dff30faf1135d",
    "/js/switch.js": "/js/switch.js?id=89407cb91d6edbdf4b03",
    "/js/role.js": "/js/role.js?id=876f9768d4dafad84a9f",
    "/js/user.js": "/js/user.js?id=34c4b598db72d33c2a35",
    "/js/master-data-issue-category.js": "/js/master-data-issue-category.js?id=fc986264551b787d7c14",
    "/js/master-data-detail-issue-category.js": "/js/master-data-detail-issue-category.js?id=c35ab29de6f9765c7ec2",
    "/js/user-support.js": "/js/user-support.js?id=26daf9febe31520337f8",
    "/js/notification.js": "/js/notification.js?id=afc60529c0cca0fd6c10",
    "/css/backend.css": "/css/backend.css?id=8ea576cc5e2c0d87f8b2"
}
